gW

p

amArI

BgQ

tbcfuvxbD

KzCdtPSG

qIDUnSeR

k

uuBN

TSiwoQ

kn

TwBWYlF

kTpGoyH

iIWgyFezo

Mq

xggooeUC

Bd

uCtmzgPp

UOw

Oh

SrQvOnxt

envO

NrsBfUrQo

SWA

QRL

clbWv

PBE

XINCGqJSd

ZlmSrof

RC
