Jar of Mayo

G Red

+2

Glue Man

Murious

Pinwheel

BIG BANANA

Gimli

Willem Dafoe

McDLT Briefcase Guy

-2

Sans

John Cena

Majima

Pac-Man

Adam Sandler

Pasta Italiano Chef

Chuck E. Cheese

Max

B. F. Bugleberry
